lab3/fifoParamExtended/fifoParamExtended_test_1_waveform.vcd
$date
     Jun 13, 2017       01:01:39
$end

$version
 SystemC 2.3.1-Accellera --- Feb 19 2017 02:13:21
$end

$timescale
     1 ps
$end

$scope module SystemC $end
$var wire    1  aaaaa  clock       $end
$var wire    1  aaaab  sreset_n       $end
$var wire    1  aaaac  push       $end
$var wire    1  aaaad  pop       $end
$var wire    8  aaaae  data_in [7:0]  $end
$var wire    8  aaaaf  data_out [7:0]  $end
$var wire    1  aaaag  empty       $end
$var wire    1  aaaah  full       $end
$var wire    1  aaaai  almost_empty       $end
$var wire    1  aaaaj  almost_full       $end
$upscope $end
$enddefinitions  $end

$comment
All initial values are dumped below at time 0 sec = 0 timescale units.
$end

$dumpvars
1aaaaa
0aaaab
0aaaac
0aaaad
b110 aaaae
b0 aaaaf
1aaaag
0aaaah
0aaaai
0aaaaj
$end

#2500
0aaaaa

#5000
1aaaaa
1aaaab
1aaaac
0aaaag
1aaaai

#7500
0aaaaa

#10000
1aaaaa
b111 aaaae

#12500
0aaaaa

#15000
1aaaaa
b1000 aaaae

#17500
0aaaaa

#20000
1aaaaa
b1001 aaaae

#22500
0aaaaa

#25000
1aaaaa
b1010 aaaae
0aaaai

#27500
0aaaaa

#30000
1aaaaa
b1011 aaaae

#32500
0aaaaa

#35000
1aaaaa
b1100 aaaae

#37500
0aaaaa

#40000
1aaaaa
b1101 aaaae

#42500
0aaaaa

#45000
1aaaaa
b1110 aaaae

#47500
0aaaaa

#50000
1aaaaa
b1111 aaaae

#52500
0aaaaa

#55000
1aaaaa
b10000 aaaae

#57500
0aaaaa

#60000
1aaaaa
b10001 aaaae
1aaaaj

#62500
0aaaaa

#65000
1aaaaa
b10010 aaaae

#67500
0aaaaa

#70000
1aaaaa
b10011 aaaae

#72500
0aaaaa

#75000
1aaaaa
b10100 aaaae

#77500
0aaaaa

#80000
1aaaaa
b10101 aaaae
1aaaah
0aaaaj

#82500
0aaaaa

#85000
1aaaaa
b10110 aaaae

#87500
0aaaaa

#90000
1aaaaa
b10111 aaaae

#92500
0aaaaa

#95000
1aaaaa
b11000 aaaae

#97500
0aaaaa

#100000
1aaaaa
b11001 aaaae

#102500
0aaaaa

#105000
1aaaaa
0aaaac
1aaaad
b110 aaaaf
0aaaah
1aaaaj

#107500
0aaaaa

#110000
1aaaaa
b111 aaaaf

#112500
0aaaaa

#115000
1aaaaa
b1000 aaaaf

#117500
0aaaaa

#120000
1aaaaa
b1001 aaaaf

#122500
0aaaaa

#125000
1aaaaa
b1010 aaaaf
0aaaaj

#127500
0aaaaa

#130000
1aaaaa
b1011 aaaaf

#132500
0aaaaa

#135000
1aaaaa
b1100 aaaaf

#137500
0aaaaa

#140000
1aaaaa
b1101 aaaaf

#142500
0aaaaa

#145000
1aaaaa
b1110 aaaaf

#147500
0aaaaa

#150000
1aaaaa
b1111 aaaaf

#152500
0aaaaa

#155000
1aaaaa
b10000 aaaaf

#157500
0aaaaa

#160000
1aaaaa
b10001 aaaaf
1aaaai

#162500
0aaaaa

#165000
1aaaaa
b10010 aaaaf

#167500
0aaaaa

#170000
1aaaaa
b10011 aaaaf

#172500
0aaaaa

#175000
1aaaaa
b10100 aaaaf

#177500
0aaaaa

#180000
1aaaaa
b10101 aaaaf
1aaaag
0aaaai

#182500
0aaaaa

#185000
1aaaaa

#187500
0aaaaa

#190000
1aaaaa

#192500
0aaaaa

#195000
1aaaaa

#197500
0aaaaa

#200000
1aaaaa
1aaaac
b11010 aaaae
0aaaag
1aaaai

#202500
0aaaaa

#205000
1aaaaa
b11011 aaaae
b11010 aaaaf

#207500
0aaaaa

#210000
1aaaaa
b11100 aaaae
b11011 aaaaf

#212500
0aaaaa

#215000
1aaaaa
b11101 aaaae
b11100 aaaaf

#217500
0aaaaa

#220000
1aaaaa
b11110 aaaae
b11101 aaaaf

#222500
0aaaaa

#225000
1aaaaa
b11111 aaaae
b11110 aaaaf

#227500
0aaaaa

#230000
1aaaaa
b100000 aaaae
b11111 aaaaf

#232500
0aaaaa

#235000
1aaaaa
b100001 aaaae
b100000 aaaaf

#237500
0aaaaa

#240000
1aaaaa
b100010 aaaae
b100001 aaaaf

#242500
0aaaaa

#245000
1aaaaa
b100011 aaaae
b100010 aaaaf

#247500
0aaaaa

#250000
1aaaaa
b100100 aaaae
b100011 aaaaf

#252500
0aaaaa

#255000
1aaaaa
b100101 aaaae
b100100 aaaaf

#257500
0aaaaa

#260000
1aaaaa
b100110 aaaae
b100101 aaaaf

#262500
0aaaaa

#265000
1aaaaa
b100111 aaaae
b100110 aaaaf

#267500
0aaaaa

#270000
1aaaaa
b101000 aaaae
b100111 aaaaf

#272500
0aaaaa

#275000
1aaaaa
b101001 aaaae
b101000 aaaaf

#277500
0aaaaa

#280000
1aaaaa
b101010 aaaae
b101001 aaaaf

#282500
0aaaaa

#285000
1aaaaa
b101011 aaaae
b101010 aaaaf

#287500
0aaaaa

#290000
1aaaaa
b101100 aaaae
b101011 aaaaf

#292500
0aaaaa

#295000
1aaaaa
b101101 aaaae
b101100 aaaaf

#297500
0aaaaa

#300000
1aaaaa
b101110 aaaae
b101101 aaaaf

#302500
0aaaaa

#305000
1aaaaa
b101111 aaaae
b101110 aaaaf

#307500
0aaaaa

#310000
1aaaaa
b110000 aaaae
b101111 aaaaf

#312500
0aaaaa

#315000
1aaaaa
b110001 aaaae
b110000 aaaaf

#317500
0aaaaa

#320000
1aaaaa
b110010 aaaae
b110001 aaaaf

#322500
0aaaaa

#325000
1aaaaa
b110011 aaaae
b110010 aaaaf

#327500
0aaaaa

#330000
1aaaaa
b110100 aaaae
b110011 aaaaf

#332500
0aaaaa

#335000
1aaaaa
b110101 aaaae
b110100 aaaaf

#337500
0aaaaa

#340000
1aaaaa
b110101 aaaaf

#342500
0aaaaa

#345000
1aaaaa

#347500
0aaaaa

#350000
1aaaaa

#352500
0aaaaa

#355000
1aaaaa

#357500
0aaaaa

#360000
1aaaaa
0aaaab
1aaaag
0aaaai

