lab3/fifo/fifo_waveform.vcd
$date
     Jun 13, 2017       00:29:35
$end

$version
 SystemC 2.3.1-Accellera --- Feb 19 2017 02:13:21
$end

$timescale
     1 ps
$end

$scope module SystemC $end
$var wire    1  aaaaa  clock       $end
$var wire    1  aaaab  sreset_n       $end
$var wire    1  aaaac  push       $end
$var wire    1  aaaad  pop       $end
$var wire    8  aaaae  data_in [7:0]  $end
$var wire    8  aaaaf  data_out [7:0]  $end
$var wire    1  aaaag  empty       $end
$var wire    1  aaaah  full       $end
$upscope $end
$enddefinitions  $end

$comment
All initial values are dumped below at time 0 sec = 0 timescale units.
$end

$dumpvars
1aaaaa
0aaaab
0aaaac
0aaaad
b1100001 aaaae
b0 aaaaf
1aaaag
0aaaah
$end

#2500
0aaaaa

#5000
1aaaaa
1aaaab
1aaaac
0aaaag

#7500
0aaaaa

#10000
1aaaaa
b1100010 aaaae

#12500
0aaaaa

#15000
1aaaaa
b1100011 aaaae

#17500
0aaaaa

#20000
1aaaaa
b1100100 aaaae

#22500
0aaaaa

#25000
1aaaaa
b1100101 aaaae

#27500
0aaaaa

#30000
1aaaaa
b1100110 aaaae

#32500
0aaaaa

#35000
1aaaaa
b1100111 aaaae

#37500
0aaaaa

#40000
1aaaaa
b1101000 aaaae
1aaaah

#42500
0aaaaa

#45000
1aaaaa
b1101001 aaaae

#47500
0aaaaa

#50000
1aaaaa
b1101010 aaaae

#52500
0aaaaa

#55000
1aaaaa
b1101011 aaaae

#57500
0aaaaa

#60000
1aaaaa
b1101100 aaaae

#62500
0aaaaa

#65000
1aaaaa
0aaaac
1aaaad
b1100001 aaaaf
0aaaah

#67500
0aaaaa

#70000
1aaaaa
b1100010 aaaaf

#72500
0aaaaa

#75000
1aaaaa
b1100011 aaaaf

#77500
0aaaaa

#80000
1aaaaa
b1100100 aaaaf

#82500
0aaaaa

#85000
1aaaaa
b1100101 aaaaf

#87500
0aaaaa

#90000
1aaaaa
b1100110 aaaaf

#92500
0aaaaa

#95000
1aaaaa
b1100111 aaaaf

#97500
0aaaaa

#100000
1aaaaa
b1101000 aaaaf
1aaaag

#102500
0aaaaa

#105000
1aaaaa

#107500
0aaaaa

#110000
1aaaaa

#112500
0aaaaa

#115000
1aaaaa

#117500
0aaaaa

#120000
1aaaaa
1aaaac
b1101101 aaaae
0aaaag

#122500
0aaaaa

#125000
1aaaaa
b1101110 aaaae
b1101101 aaaaf

#127500
0aaaaa

#130000
1aaaaa
b1101111 aaaae
b1101110 aaaaf

#132500
0aaaaa

#135000
1aaaaa
b1110000 aaaae
b1101111 aaaaf

#137500
0aaaaa

#140000
1aaaaa
b1110001 aaaae
b1110000 aaaaf

#142500
0aaaaa

#145000
1aaaaa
b1110010 aaaae
b1110001 aaaaf

#147500
0aaaaa

#150000
1aaaaa
b1110011 aaaae
b1110010 aaaaf

#152500
0aaaaa

#155000
1aaaaa
b1110100 aaaae
b1110011 aaaaf

#157500
0aaaaa

#160000
1aaaaa
b1110101 aaaae
b1110100 aaaaf

#162500
0aaaaa

#165000
1aaaaa
b1110110 aaaae
b1110101 aaaaf

#167500
0aaaaa

#170000
1aaaaa
b1110111 aaaae
b1110110 aaaaf

#172500
0aaaaa

#175000
1aaaaa
b1111000 aaaae
b1110111 aaaaf

#177500
0aaaaa

#180000
1aaaaa
b1111001 aaaae
b1111000 aaaaf

#182500
0aaaaa

#185000
1aaaaa
b1111010 aaaae
b1111001 aaaaf

#187500
0aaaaa

#190000
1aaaaa
b1111011 aaaae
b1111010 aaaaf

#192500
0aaaaa

#195000
1aaaaa
b1111100 aaaae
b1111011 aaaaf

#197500
0aaaaa

#200000
1aaaaa
b1111101 aaaae
b1111100 aaaaf

#202500
0aaaaa

#205000
1aaaaa
b1111110 aaaae
b1111101 aaaaf

#207500
0aaaaa

#210000
1aaaaa
b1111111 aaaae
b1111110 aaaaf

#212500
0aaaaa

#215000
1aaaaa
b10000000 aaaae
b1111111 aaaaf

#217500
0aaaaa

#220000
1aaaaa
b10000000 aaaaf

#222500
0aaaaa

#225000
1aaaaa

#227500
0aaaaa

#230000
1aaaaa

#232500
0aaaaa

#235000
1aaaaa

#237500
0aaaaa

#240000
1aaaaa
0aaaab
1aaaag

