lab1/counter/counter_waveform.vcd
$date
     Mar 30, 2017       23:29:37
$end

$version
 SystemC 2.3.1-Accellera --- Feb 19 2017 02:13:21
$end

$timescale
     1 ps
$end

$scope module SystemC $end
$var wire    1  aaaaa  clock       $end
$var wire    1  aaaab  reset_n       $end
$var wire    1  aaaac  areset_n       $end
$var wire    1  aaaad  load       $end
$var wire    8  aaaae  data [7:0]  $end
$var wire    8  aaaaf  dout [7:0]  $end
$upscope $end
$enddefinitions  $end

$comment
All initial values are dumped below at time 0 sec = 0 timescale units.
$end

$dumpvars
1aaaaa
1aaaab
0aaaac
0aaaad
b0 aaaae
b0 aaaaf
$end

#2500
0aaaaa

#5000
1aaaaa
1aaaac
b1 aaaaf

#7500
0aaaaa

#10000
1aaaaa
b10 aaaaf

#12500
0aaaaa

#15000
1aaaaa
b11 aaaaf

#17500
0aaaaa

#20000
1aaaaa
b100 aaaaf

#22500
0aaaaa

#25000
1aaaaa
b101 aaaaf

#27500
0aaaaa

#30000
1aaaaa
b110 aaaaf

#32500
0aaaaa

#35000
1aaaaa
b111 aaaaf

#37500
0aaaaa

#40000
1aaaaa
b1000 aaaaf

#42500
0aaaaa

#45000
1aaaaa
b1001 aaaaf

#47500
0aaaaa

#50000
1aaaaa
b1010 aaaaf

#52500
0aaaaa

#55000
1aaaaa
b1011 aaaaf

#57500
0aaaaa

#60000
1aaaaa
b1100 aaaaf

#62500
0aaaaa

#65000
1aaaaa
b1101 aaaaf

#67500
0aaaaa

#70000
1aaaaa
b1110 aaaaf

#72500
0aaaaa

#75000
1aaaaa
b1111 aaaaf

#77500
0aaaaa

#80000
1aaaaa
b10000 aaaaf

#82500
0aaaaa

#85000
1aaaaa
b10001 aaaaf

#87500
0aaaaa

#89000
1aaaad
b101 aaaae

#90000
1aaaaa
b101 aaaaf

#91000
0aaaad

#92500
0aaaaa

#95000
1aaaaa
b110 aaaaf

#97500
0aaaaa

#100000
1aaaaa
b111 aaaaf

#102500
0aaaaa

#105000
1aaaaa
b1000 aaaaf

#107500
0aaaaa

#110000
1aaaaa
b1001 aaaaf

#112500
0aaaaa

#115000
1aaaaa
b1010 aaaaf

#117500
0aaaaa

#120000
1aaaaa
b1011 aaaaf

#122500
0aaaaa

#125000
1aaaaa
b1100 aaaaf

#127500
0aaaaa

#130000
1aaaaa
b1101 aaaaf

#132500
0aaaaa

#135000
1aaaaa
b1110 aaaaf

#137500
0aaaaa

#140000
1aaaaa
b1111 aaaaf

#142500
0aaaaa

#145000
1aaaaa
b10000 aaaaf

#147500
0aaaaa

#150000
1aaaaa
b10001 aaaaf

#152500
0aaaaa

#155000
1aaaaa
b10010 aaaaf

#157500
0aaaaa

#160000
1aaaaa
b10011 aaaaf

#162500
0aaaaa

#165000
1aaaaa
b10100 aaaaf

#167500
0aaaaa

#170000
1aaaaa
b10101 aaaaf

#172500
0aaaaa

#175000
1aaaaa
b10110 aaaaf

#177000
0aaaab

#177500
0aaaaa

#180000
1aaaaa
b0 aaaaf

#182500
0aaaaa

#185000
1aaaaa
1aaaab
b1 aaaaf

#187500
0aaaaa

#190000
1aaaaa
b10 aaaaf

#192500
0aaaaa

#195000
1aaaaa
b11 aaaaf

#197500
0aaaaa

#200000
1aaaaa
b100 aaaaf

#202500
0aaaaa

#205000
1aaaaa
b101 aaaaf

#207500
0aaaaa

#210000
1aaaaa
b110 aaaaf

#211000
0aaaac
b0 aaaaf

#212500
0aaaaa

#215000
1aaaaa

#217500
0aaaaa

#219000
1aaaac

#220000
1aaaaa
b1 aaaaf

#222500
0aaaaa

#225000
1aaaaa
b10 aaaaf

